{
  "isLoggedIn": false,
  "time": 1578391104,
  "totalCount": 346074,
  "currentPage": 1,
  "lastPage": 17304,
  "products": [{
      "id": "15469583",
      "tag": null,
      "group_tag": null,
      "sku": "107520310",
      "title": "Дамско яке за зимни спортове",
      "brand": "Princess Of Powder By Tcm",
      "is_new": false,
      "size_name": "S",
      "image_path": "files/52-2019/",
      "image_name": "312_Damsko-sportno-yake-Princess-Of-Powder-By-Tcm-107520310a.jpg",
      "image_archive": "0",
      "reservations": {
        "reserved_time": 0,
        "reserved_by_me": false
      },
      "promo": "0",
      "condition": "4",
      "main_category": "10000",
      "sizes_id": "3",
      "add_promo": 0,
      "rate": "0",
      "internal_status": "0",
      "outlet": false,
      "sale": false,
      "product_likes": 4,
      "variants": null,
      "label": "S",
      "price": "76,00",
      "size_label": "S",
      "price_original": "76,00",
      "source_price": "76,00",
      "price_eur": 38.8599999999999994315658113919198513031005859375,
      "is_sold": false,
      "is_favorite": false,
      "universalName": "Women / Jackets",
      "promo_background_colour": "FFFFFF",
      "promo_text_colour": "000000"
    },
    {
      "id": "15469581",
      "tag": null,
      "group_tag": null,
      "sku": "107520308",
      "title": "Дамско яке за зимни спортове",
      "brand": "Active",
      "is_new": false,
      "size_name": "XL",
      "image_path": "files/52-2019/",
      "image_name": "312_Damsko-sportno-yake-Active-107520308a.jpg",
      "image_archive": "0",
      "reservations": {
        "reserved_time": 0,
        "reserved_by_me": false
      },
      "promo": "0",
      "condition": "4",
      "main_category": "10000",
      "sizes_id": "6",
      "add_promo": 0,
      "rate": "0",
      "internal_status": "0",
      "outlet": false,
      "sale": false,
      "product_likes": 10,
      "variants": null,
      "label": "44",
      "price": "72,00",
      "size_label": "XL",
      "price_original": "72,00",
      "source_price": "72,00",
      "price_eur": 36.81000000000000227373675443232059478759765625,
      "is_sold": false,
      "is_favorite": false,
      "universalName": "Women / Jackets",
      "promo_background_colour": "FFFFFF",
      "promo_text_colour": "000000"
    },
    {
      "id": "15469579",
      "tag": null,
      "group_tag": null,
      "sku": "107520305",
      "title": "Дамско яке за зимни спортове",
      "brand": "TCM",
      "is_new": false,
      "size_name": "L",
      "image_path": "files/52-2019/",
      "image_name": "312_Damsko-sportno-yake-TCM-107520305a.jpg",
      "image_archive": "0",
      "reservations": {
        "reserved_time": 0,
        "reserved_by_me": false
      },
      "promo": "0",
      "condition": "4",
      "main_category": "10000",
      "sizes_id": "5",
      "add_promo": 0,
      "rate": "0",
      "internal_status": "0",
      "outlet": false,
      "sale": false,
      "product_likes": 6,
      "variants": null,
      "label": "D 42",
      "price": "52,00",
      "size_label": "L",
      "price_original": "52,00",
      "source_price": "52,00",
      "price_eur": 26.589999999999999857891452847979962825775146484375,
      "is_sold": false,
      "is_favorite": false,
      "universalName": "Women / Jackets",
      "promo_background_colour": "FFFFFF",
      "promo_text_colour": "000000"
    },
    {
      "id": "15469575",
      "tag": null,
      "group_tag": null,
      "sku": "107520184",
      "title": "Мъжко яке за зимни спортове",
      "brand": "Crane",
      "is_new": false,
      "size_name": "M",
      "image_path": "files/01-2019/",
      "image_name": "312_Majko-yake-za-zimni-sportove-Crane-107520184a.jpg",
      "image_archive": "0",
      "reservations": {
        "reserved_time": 0,
        "reserved_by_me": false
      },
      "promo": "0",
      "condition": "4",
      "main_category": "20000",
      "sizes_id": "4",
      "add_promo": 0,
      "rate": "0",
      "internal_status": "0",
      "outlet": false,
      "sale": false,
      "product_likes": 4,
      "variants": null,
      "label": "M",
      "price": "62,00",
      "size_label": "M",
      "price_original": "62,00",
      "source_price": "62,00",
      "price_eur": 31.699999999999999289457264239899814128875732421875,
      "is_sold": false,
      "is_favorite": false,
      "universalName": "Men / Jackets",
      "promo_background_colour": "FFFFFF",
      "promo_text_colour": "000000"
    },
    {
      "id": "15469573",
      "tag": null,
      "group_tag": null,
      "sku": "107518418",
      "title": "Дамски панталон за зимни спортове",
      "brand": "Limit",
      "is_new": false,
      "size_name": "L",
      "image_path": "files/52-2019/",
      "image_name": "312_Damski-pantalon-za-zimni-sportove-Limit-107518418a.jpg",
      "image_archive": "0",
      "reservations": {
        "reserved_time": 0,
        "reserved_by_me": false
      },
      "promo": "10",
      "condition": "4",
      "main_category": "10000",
      "sizes_id": "5",
      "add_promo": 0,
      "rate": "0",
      "internal_status": "0",
      "outlet": false,
      "sale": false,
      "product_likes": 4,
      "variants": null,
      "label": "L",
      "price": "39,60",
      "size_label": "L",
      "price_original": "44,00",
      "source_price": "39,60",
      "price_eur": 19.940000000000001278976924368180334568023681640625,
      "is_sold": false,
      "is_favorite": false,
      "universalName": "Women / Trousers",
      "promo_background_colour": "FFFFFF",
      "promo_text_colour": "000000"
    },
    {
      "id": "15469571",
      "tag": null,
      "group_tag": null,
      "sku": "107518164",
      "title": "Мъжки екип за зимни спортове",
      "brand": "-",
      "is_new": false,
      "size_name": "M",
      "image_path": "files/52-2019/",
      "image_name": "312_Majki-ekip-za-zimni-sportove---107518164a.jpg",
      "image_archive": "0",
      "reservations": {
        "reserved_time": 0,
        "reserved_by_me": false
      },
      "promo": "10",
      "condition": "5",
      "main_category": "20000",
      "sizes_id": "4",
      "add_promo": 0,
      "rate": "0",
      "internal_status": "0",
      "outlet": false,
      "sale": false,
      "product_likes": 3,
      "variants": null,
      "label": "M",
      "price": "43,20",
      "size_label": "M",
      "price_original": "48,00",
      "source_price": "43,20",
      "price_eur": 21.989999999999998436805981327779591083526611328125,
      "is_sold": false,
      "is_favorite": false,
      "universalName": "Men / Trousers",
      "promo_background_colour": "FFFFFF",
      "promo_text_colour": "000000"
    },
    {
      "id": "15469569",
      "tag": null,
      "group_tag": null,
      "sku": "107518120",
      "title": "Мъжки панталон за зимни спортове",
      "brand": "Outdoor",
      "is_new": false,
      "size_name": "XL",
      "image_path": "files/52-2019/",
      "image_name": "312_Majki-pantalon-za-zimni-sportove-Outdoor-107518120a.jpg",
      "image_archive": "0",
      "reservations": {
        "reserved_time": 0,
        "reserved_by_me": false
      },
      "promo": "10",
      "condition": "4",
      "main_category": "20000",
      "sizes_id": "6",
      "add_promo": 0,
      "rate": "0",
      "internal_status": "0",
      "outlet": false,
      "sale": false,
      "product_likes": 1,
      "variants": null,
      "label": "",
      "price": "41,40",
      "size_label": "XL",
      "price_original": "46,00",
      "source_price": "41,40",
      "price_eur": 20.96000000000000085265128291212022304534912109375,
      "is_sold": false,
      "is_favorite": false,
      "universalName": "Men / Trousers",
      "promo_background_colour": "FFFFFF",
      "promo_text_colour": "000000"
    },
    {
      "id": "15469567",
      "tag": null,
      "group_tag": null,
      "sku": "107518018",
      "title": "Мъжки панталон за зимни спортове",
      "brand": "Ocean Earth",
      "is_new": false,
      "size_name": "M",
      "image_path": "files/52-2019/",
      "image_name": "312_Majki-pantalon-za-zimni-sportove---107518018a.jpg",
      "image_archive": "0",
      "reservations": {
        "reserved_time": 0,
        "reserved_by_me": false
      },
      "promo": "10",
      "condition": "4",
      "main_category": "20000",
      "sizes_id": "4",
      "add_promo": 0,
      "rate": "0",
      "internal_status": "0",
      "outlet": false,
      "sale": false,
      "product_likes": 1,
      "variants": null,
      "label": "M",
      "price": "41,40",
      "size_label": "M",
      "price_original": "46,00",
      "source_price": "41,40",
      "price_eur": 20.96000000000000085265128291212022304534912109375,
      "is_sold": false,
      "is_favorite": false,
      "universalName": "Men / Trousers",
      "promo_background_colour": "FFFFFF",
      "promo_text_colour": "000000"
    },
    {
      "id": "15469565",
      "tag": null,
      "group_tag": null,
      "sku": "107517959",
      "title": "Мъжки панталон за зимни спортове",
      "brand": "Polo Sport",
      "is_new": false,
      "size_name": "XL",
      "image_path": "files/01-2019/",
      "image_name": "312_Majki-pantalon-za-zimni-sportove-Polo-Sport-107517959a.jpg",
      "image_archive": "0",
      "reservations": {
        "reserved_time": 0,
        "reserved_by_me": false
      },
      "promo": "10",
      "condition": "4",
      "main_category": "20000",
      "sizes_id": "6",
      "add_promo": 0,
      "rate": "0",
      "internal_status": "0",
      "outlet": false,
      "sale": false,
      "product_likes": 3,
      "variants": null,
      "label": "XL",
      "price": "70,20",
      "size_label": "XL",
      "price_original": "78,00",
      "source_price": "70,20",
      "price_eur": 35.78999999999999914734871708787977695465087890625,
      "is_sold": false,
      "is_favorite": false,
      "universalName": "Men / Trousers",
      "promo_background_colour": "FFFFFF",
      "promo_text_colour": "000000"
    },
    {
      "id": "15469563",
      "tag": null,
      "group_tag": null,
      "sku": "107517578",
      "title": "Мъжко яке за зимни спортове",
      "brand": "Burton",
      "is_new": false,
      "size_name": "S",
      "image_path": "files/52-2019/",
      "image_name": "312_Majko-yake-za-zimni-sportove-Burton-107517578a.jpg",
      "image_archive": "0",
      "reservations": {
        "reserved_time": 0,
        "reserved_by_me": false
      },
      "promo": "0",
      "condition": "5",
      "main_category": "20000",
      "sizes_id": "3",
      "add_promo": 0,
      "rate": "0",
      "internal_status": "0",
      "outlet": false,
      "sale": false,
      "product_likes": 12,
      "variants": null,
      "label": "S",
      "price": "136,00",
      "size_label": "S",
      "price_original": "136,00",
      "source_price": "136,00",
      "price_eur": 69.5400000000000062527760746888816356658935546875,
      "is_sold": false,
      "is_favorite": false,
      "universalName": "Men / Jackets",
      "promo_background_colour": "FFFFFF",
      "promo_text_colour": "000000"
    },
    {
      "id": "15469561",
      "tag": null,
      "group_tag": null,
      "sku": "107510307",
      "title": "Дамско яке за зимни спортове",
      "brand": "Esprit",
      "is_new": false,
      "size_name": "L",
      "image_path": "files/52-2019/",
      "image_name": "312_Damsko-yake-za-zimni-sportove-Esprit-107510307a.jpg",
      "image_archive": "0",
      "reservations": {
        "reserved_time": 0,
        "reserved_by_me": false
      },
      "promo": "0",
      "condition": "4",
      "main_category": "10000",
      "sizes_id": "5",
      "add_promo": 0,
      "rate": "0",
      "internal_status": "0",
      "outlet": false,
      "sale": false,
      "product_likes": 1,
      "variants": null,
      "label": "D 40",
      "price": "51,00",
      "size_label": "L",
      "price_original": "51,00",
      "source_price": "51,00",
      "price_eur": 26.0799999999999982946974341757595539093017578125,
      "is_sold": false,
      "is_favorite": false,
      "universalName": "Women / Jackets",
      "promo_background_colour": "FFFFFF",
      "promo_text_colour": "000000"
    },
    {
      "id": "15469560",
      "tag": null,
      "group_tag": null,
      "sku": "107510256",
      "title": "Дамско яке за зимни спортове",
      "brand": "Rodeo",
      "is_new": false,
      "size_name": "L",
      "image_path": "files/52-2019/",
      "image_name": "312_Damsko-yake-za-zimni-sportove-Rodeo-107510256a.jpg",
      "image_archive": "0",
      "reservations": {
        "reserved_time": 0,
        "reserved_by_me": false
      },
      "promo": "0",
      "condition": "5",
      "main_category": "10000",
      "sizes_id": "5",
      "add_promo": 0,
      "rate": "0",
      "internal_status": "0",
      "outlet": false,
      "sale": false,
      "product_likes": 6,
      "variants": null,
      "label": "M 40/42",
      "price": "72,00",
      "size_label": "L",
      "price_original": "72,00",
      "source_price": "72,00",
      "price_eur": 36.81000000000000227373675443232059478759765625,
      "is_sold": false,
      "is_favorite": false,
      "universalName": "Women / Jackets",
      "promo_background_colour": "FFFFFF",
      "promo_text_colour": "000000"
    },
    {
      "id": "15467250",
      "tag": null,
      "group_tag": null,
      "sku": "107496879",
      "title": "Мъжки панталон за зимни спортове",
      "brand": "Schoffel",
      "is_new": false,
      "size_name": "XL",
      "image_path": "files/52-2019/",
      "image_name": "312_Majki-pantalon-za-zimni-sportove-Schoffel-107496879a.jpg",
      "image_archive": "0",
      "reservations": {
        "reserved_time": 0,
        "reserved_by_me": false
      },
      "promo": "10",
      "condition": "4",
      "main_category": "20000",
      "sizes_id": "6",
      "add_promo": 0,
      "rate": "0",
      "internal_status": "0",
      "outlet": false,
      "sale": false,
      "product_likes": 7,
      "variants": null,
      "label": "D 27",
      "price": "64,80",
      "size_label": "XL",
      "price_original": "72,00",
      "source_price": "64,80",
      "price_eur": 32.719999999999998863131622783839702606201171875,
      "is_sold": false,
      "is_favorite": false,
      "universalName": "Men / Trousers",
      "promo_background_colour": "FFFFFF",
      "promo_text_colour": "000000"
    },
    {
      "id": "15466847",
      "tag": null,
      "group_tag": null,
      "sku": "107491371",
      "title": "Мъжки панталон за зимни спортове",
      "brand": "Nordica",
      "is_new": false,
      "size_name": "M",
      "image_path": "files/52-2019/",
      "image_name": "312_Majki-pantalon-za-zimni-sportove-Nordica-107491371a.jpg",
      "image_archive": "0",
      "reservations": {
        "reserved_time": 0,
        "reserved_by_me": false
      },
      "promo": "10",
      "condition": "4",
      "main_category": "20000",
      "sizes_id": "4",
      "add_promo": 0,
      "rate": "0",
      "internal_status": "0",
      "outlet": false,
      "sale": false,
      "product_likes": 4,
      "variants": null,
      "label": "M",
      "price": "64,80",
      "size_label": "M",
      "price_original": "72,00",
      "source_price": "64,80",
      "price_eur": 32.719999999999998863131622783839702606201171875,
      "is_sold": false,
      "is_favorite": false,
      "universalName": "Men / Trousers",
      "promo_background_colour": "FFFFFF",
      "promo_text_colour": "000000"
    },
    {
      "id": "15466845",
      "tag": null,
      "group_tag": null,
      "sku": "107491250",
      "title": "Мъжки панталон за зимни спортове",
      "brand": "Luhta",
      "is_new": true,
      "size_name": "L",
      "image_path": "files/52-2019/",
      "image_name": "312_Majki-pantalon-za-zimni-sportove-Luhta-107491250a.jpg",
      "image_archive": "0",
      "reservations": {
        "reserved_time": 0,
        "reserved_by_me": false
      },
      "promo": "10",
      "condition": "5",
      "main_category": "20000",
      "sizes_id": "5",
      "add_promo": 0,
      "rate": "0",
      "internal_status": "0",
      "outlet": false,
      "sale": false,
      "product_likes": 5,
      "variants": null,
      "label": "23",
      "price": "118,80",
      "size_label": "L",
      "price_original": "132,00",
      "source_price": "118,80",
      "price_eur": 60.3299999999999982946974341757595539093017578125,
      "is_sold": false,
      "is_favorite": false,
      "universalName": "Men / Trousers",
      "promo_background_colour": "FFFFFF",
      "promo_text_colour": "000000"
    },
    {
      "id": "15466843",
      "tag": null,
      "group_tag": null,
      "sku": "107491245",
      "title": "Мъжки панталон за зимни спортове",
      "brand": "-",
      "is_new": false,
      "size_name": "XL",
      "image_path": "files/52-2019/",
      "image_name": "312_Majki-pantalon-za-zimni-sportove---107491245a.jpg",
      "image_archive": "0",
      "reservations": {
        "reserved_time": 0,
        "reserved_by_me": false
      },
      "promo": "10",
      "condition": "5",
      "main_category": "20000",
      "sizes_id": "6",
      "add_promo": 0,
      "rate": "0",
      "internal_status": "0",
      "outlet": false,
      "sale": false,
      "product_likes": 2,
      "variants": null,
      "label": "XXL",
      "price": "50,40",
      "size_label": "XL",
      "price_original": "56,00",
      "source_price": "50,40",
      "price_eur": 25.559999999999998721023075631819665431976318359375,
      "is_sold": false,
      "is_favorite": false,
      "universalName": "Men / Trousers",
      "promo_background_colour": "FFFFFF",
      "promo_text_colour": "000000"
    },
    {
      "id": "15466841",
      "tag": null,
      "group_tag": null,
      "sku": "107491240",
      "title": "Мъжки панталон за зимни спортове",
      "brand": "Columbia",
      "is_new": true,
      "size_name": "L",
      "image_path": "files/52-2019/",
      "image_name": "312_Majki-pantalon-za-zimni-sportove-Columbia-107491240a.jpg",
      "image_archive": "0",
      "reservations": {
        "reserved_time": 0,
        "reserved_by_me": false
      },
      "promo": "10",
      "condition": "5",
      "main_category": "20000",
      "sizes_id": "5",
      "add_promo": 0,
      "rate": "0",
      "internal_status": "0",
      "outlet": false,
      "sale": false,
      "product_likes": 11,
      "variants": null,
      "label": "L",
      "price": "133,20",
      "size_label": "L",
      "price_original": "148,00",
      "source_price": "133,20",
      "price_eur": 68,
      "is_sold": false,
      "is_favorite": false,
      "universalName": "Men / Trousers",
      "promo_background_colour": "FFFFFF",
      "promo_text_colour": "000000"
    },
    {
      "id": "15466839",
      "tag": null,
      "group_tag": null,
      "sku": "107491179",
      "title": "Ръкавици за зимни спортове",
      "brand": "-",
      "is_new": true,
      "size_name": "",
      "image_path": "files/52-2019/",
      "image_name": "312_Rakavici-za-zimni-sportove---107491179b.jpg",
      "image_archive": "0",
      "reservations": {
        "reserved_time": 0,
        "reserved_by_me": false
      },
      "promo": "0",
      "condition": "5",
      "main_category": "40000",
      "sizes_id": null,
      "add_promo": 0,
      "rate": "0",
      "internal_status": "0",
      "outlet": false,
      "sale": false,
      "product_likes": 5,
      "variants": null,
      "label": "",
      "price": "32,00",
      "size_label": "",
      "price_original": "32,00",
      "source_price": "32,00",
      "price_eur": 16.3599999999999994315658113919198513031005859375,
      "is_sold": false,
      "is_favorite": false,
      "universalName": "Accessories / Gloves",
      "promo_background_colour": "FFFFFF",
      "promo_text_colour": "000000"
    },
    {
      "id": "15466837",
      "tag": null,
      "group_tag": null,
      "sku": "107490457",
      "title": "Дамско яке за зимни спортове",
      "brand": "Janina",
      "is_new": false,
      "size_name": "XXL",
      "image_path": "files/52-2019/",
      "image_name": "312_Damsko-yake-za-zimni-sportove-Janina-107490457a.jpg",
      "image_archive": "0",
      "reservations": {
        "reserved_time": 0,
        "reserved_by_me": false
      },
      "promo": "0",
      "condition": "5",
      "main_category": "10000",
      "sizes_id": "7",
      "add_promo": 0,
      "rate": "0",
      "internal_status": "0",
      "outlet": false,
      "sale": false,
      "product_likes": 5,
      "variants": null,
      "label": "48",
      "price": "64,00",
      "size_label": "XXL",
      "price_original": "64,00",
      "source_price": "64,00",
      "price_eur": 32.719999999999998863131622783839702606201171875,
      "is_sold": false,
      "is_favorite": false,
      "universalName": "Women / Jackets",
      "promo_background_colour": "FFFFFF",
      "promo_text_colour": "000000"
    },
    {
      "id": "15466834",
      "tag": null,
      "group_tag": null,
      "sku": "107490201",
      "title": "Мъжки панталон за зимни спортове",
      "brand": "Columbia",
      "is_new": false,
      "size_name": "XL",
      "image_path": "files/52-2019/",
      "image_name": "312_Majki-pantalon-za-zimni-sportove-Columbia-107490201a.jpg",
      "image_archive": "0",
      "reservations": {
        "reserved_time": 0,
        "reserved_by_me": false
      },
      "promo": "10",
      "condition": "4",
      "main_category": "20000",
      "sizes_id": "6",
      "add_promo": 0,
      "rate": "0",
      "internal_status": "0",
      "outlet": false,
      "sale": false,
      "product_likes": 4,
      "variants": null,
      "label": "52/54",
      "price": "70,20",
      "size_label": "XL",
      "price_original": "78,00",
      "source_price": "70,20",
      "price_eur": 35.78999999999999914734871708787977695465087890625,
      "is_sold": false,
      "is_favorite": false,
      "universalName": "Men / Trousers",
      "promo_background_colour": "FFFFFF",
      "promo_text_colour": "000000"
    }
  ],
  "favourites": []
}